<svg viewBox="0 0 77 26" fill="none" xmlns="http://www.w3.org/2000/svg">
<path
    d="M32.8253 15.152H35.7233V2.93089H32.8253V15.152ZM44.6877 15.3615C46.8701 15.3615 48.6769 14.5934 49.8575 13.1792L47.9971 11.5032C47.1563 12.4634 46.1009 12.9522 44.8487 12.9522C42.5053 12.9522 40.8417 11.346 40.8417 9.04146C40.8417 6.7369 42.5053 5.13069 44.8487 5.13069C46.1009 5.13069 47.1563 5.61954 47.9971 6.56231L49.8575 4.88627C48.6769 3.48957 46.8701 2.72138 44.7056 2.72138C40.8059 2.72138 37.908 5.35766 37.908 9.04146C37.908 12.7253 40.8059 15.3615 44.6877 15.3615ZM54.6944 12.8824V10.0541H60.5082V7.85427H54.6944V5.20053H61.2774V2.93089H51.8144V15.152H61.51V12.8824H54.6944ZM63.8159 15.152H69.5044C73.6009 15.152 76.4094 12.7427 76.4094 9.04146C76.4094 5.3402 73.6009 2.93089 69.5044 2.93089H63.8159V15.152ZM66.7138 12.83V5.25291H69.3613C71.8478 5.25291 73.4757 6.70198 73.4757 9.04146C73.4757 11.3809 71.8478 12.83 69.3613 12.83H66.7138Z"
    fill="#464B4E"
  />
<path
    d="M36.7859 18.0853L34.854 22.3312L32.9363 18.0853H32.3639L34.5821 22.9737H35.1044L37.3226 18.0853H36.7859ZM41.638 22.9737H42.1962L39.9064 18.0853H39.3841L37.0943 22.9737H37.6453L38.2464 21.6678H41.037L41.638 22.9737ZM38.4396 21.2488L39.6417 18.623L40.8438 21.2488H38.4396ZM44.9378 23.0156C46.2186 23.0156 46.9914 22.2893 46.9914 20.8857V18.0853H46.4762V20.8647C46.4762 22.024 45.9181 22.5547 44.9378 22.5547C43.9647 22.5547 43.4066 22.024 43.4066 20.8647V18.0853H42.8771V20.8857C42.8771 22.2893 43.657 23.0156 44.9378 23.0156ZM48.5871 22.9737H51.9215V22.5268H49.1166V18.0853H48.5871V22.9737ZM53.3055 22.9737H53.835V18.5322H55.5952V18.0853H51.5453V18.5322H53.3055V22.9737Z"
    fill="#464B4E"
  />
<path
    d="M4.82816 16.2756L12.9899 24.2414H7.68937L4.72986 21.4489L4.82816 16.2756Z"
    fill="#464B4E"
  />
<path
    d="M0 12.247L2.89365 15.0712L2.92705 20.181L0 17.451V12.247Z"
    fill="#464B4E"
  />
<path
    d="M0.0476074 10.5211L15.5581 25.6273L18.5176 25.5956L26.0943 18.2968V13.0603L17.0546 21.9146L3.91758 9.06156L12.9249 0.238945L7.59191 0.207275L0.144953 7.5694L0.0476074 10.5211Z"
    fill="#464B4E"
  />
<path
    d="M6.51843 9.06162L15.5907 0.238993H18.5502L19.7536 1.50855L11.819 9.09329L13.0549 10.2986L20.9886 2.68217L23.5902 5.22128L15.8187 12.901L17.0223 14.1072L24.8911 6.5225L26.062 7.63372L26.0945 10.4579L17.0223 19.3439L6.51843 9.06162Z"
    fill="#464B4E"
  />
</svg>
