<svg viewBox="0 0 18 18" fill="none" xmlns="http://www.w3.org/2000/svg">
<path
    d="M16.0144 16.3137C13.2601 18.5621 4.65988 18.5621 1.96176 16.3137C-0.792559 14.0653 -0.511511 4.45325 1.96176 1.92378C4.43503 -0.605696 13.5411 -0.605696 16.0144 1.92378C18.4877 4.45325 18.7687 14.0653 16.0144 16.3137Z"
    fill="#C42126"
  />
<g opacity="0.2">
<path
      opacity="0.2"
      d="M9.04434 12.379C6.57107 14.3463 3.81674 15.3581 1.23107 15.4143C-0.680107 12.1541 -0.286616 4.22844 1.96181 1.92381C3.98539 -0.155971 10.3372 -0.549462 13.9909 0.743376C14.8902 4.45328 13.0353 9.17494 9.04434 12.379Z"
      fill="white"
    />
</g>
<rect
    x="4.1499"
    y="7.74652"
    width="9.6041"
    height="2.52947"
    rx="1.26474"
    fill="white"
  />
</svg>
