<svg width="29" height="20" viewBox="0 0 29 20" fill="none" xmlns="http://www.w3.org/2000/svg">
<path d="M27.1019 0H1.73812C0.778193 0 0 0.778193 0 1.73812V18.1723C0 19.1322 0.778193 19.9104 1.73812 19.9104H27.1019C28.0618 19.9104 28.84 19.1322 28.84 18.1723V1.73812C28.84 0.778193 28.0618 0 27.1019 0Z" fill="#2F4859"/>
<path d="M19.9974 4.84972V7.68049C19.9974 8.12502 20.3578 8.48529 20.8022 8.48529H25.2427C25.6872 8.48529 26.0475 8.12495 26.0475 7.68049V4.84972C26.0475 4.4052 25.6871 4.04492 25.2427 4.04492H20.8023C20.3578 4.04492 19.9974 4.40526 19.9974 4.84972Z" fill="#E56353"/>
<path d="M2.85069 2.85675H4.1018C4.34943 2.85675 4.53413 2.8671 4.65582 2.88773C4.77751 2.90836 4.8864 2.95141 4.98247 3.01687C5.07854 3.08234 5.1586 3.16954 5.22265 3.27843C5.2867 3.38731 5.31873 3.50937 5.31873 3.64455C5.31873 3.79112 5.27925 3.92563 5.20024 4.04806C5.12122 4.17049 5.01413 4.26225 4.87895 4.32347C5.06968 4.37896 5.21625 4.47361 5.31873 4.60744C5.4212 4.7412 5.47244 4.89849 5.47244 5.07924C5.47244 5.22157 5.43937 5.36001 5.37317 5.49451C5.30696 5.62902 5.21662 5.73648 5.10201 5.81691C4.98746 5.89734 4.84618 5.9468 4.67824 5.96527C4.57293 5.97667 4.31883 5.98375 3.91606 5.98664H2.85069V2.85675ZM3.48262 3.37764V4.10139H3.89678C4.143 4.10139 4.29604 4.09782 4.35578 4.09074C4.46392 4.07793 4.54897 4.04054 4.61093 3.97865C4.67288 3.91676 4.7038 3.83528 4.7038 3.73422C4.7038 3.63741 4.67713 3.55882 4.62374 3.49829C4.57034 3.43775 4.49102 3.40116 4.38571 3.38836C4.32308 3.38121 4.14306 3.3777 3.84554 3.3777H3.48262V3.37764ZM3.48262 4.62234V5.45929H4.06762C4.29536 5.45929 4.43984 5.45288 4.501 5.44007C4.59491 5.42301 4.67146 5.38138 4.73052 5.31518C4.78958 5.24897 4.81915 5.16041 4.81915 5.04937C4.81915 4.95546 4.79636 4.8757 4.75085 4.81024C4.70534 4.74477 4.6395 4.69711 4.55334 4.66718C4.46719 4.63724 4.2804 4.62234 3.99292 4.62234H3.48262Z" fill="#EBF0F3"/>
<path d="M8.82867 5.98664H8.14119L7.86794 5.2757H6.61683L6.35848 5.98664H5.68806L6.90715 2.85675H7.57541L8.82867 5.98664ZM7.66508 4.74835L7.2338 3.58691L6.81107 4.74835H7.66508Z" fill="#EBF0F3"/>
<path d="M9.17021 5.98664V2.85675H9.78508L11.0661 4.9469V2.85675H11.6531V5.98664H11.0191L9.75731 3.94558V5.98664H9.17021Z" fill="#EBF0F3"/>
<path d="M12.33 5.98664V2.85675H12.962V4.24661L14.2387 2.85675H15.0885L13.91 4.07583L15.1525 5.98664H14.3348L13.4744 4.51777L12.962 5.04081V5.98664H12.33Z" fill="#EBF0F3"/>
<path d="M4.02261 15.5272H1.57355V17.0542H4.02261V15.5272Z" fill="#EBF0F3"/>
<path d="M9.87487 15.5272H6.01414V17.0542H9.87487V15.5272Z" fill="#EBF0F3"/>
<path d="M15.4041 15.5272H11.0438V17.0542H15.4041V15.5272Z" fill="#EBF0F3"/>
<path d="M21.9276 15.5272H16.8464V17.0542H21.9276V15.5272Z" fill="#EBF0F3"/>
<path d="M27.2665 15.5272H23.5927V17.0542H27.2665V15.5272Z" fill="#EBF0F3"/>
</svg>
