<svg width="29" height="29" viewBox="0 0 29 29" fill="none" xmlns="http://www.w3.org/2000/svg">
<path d="M28.8415 7.8701V11.9575C28.8415 11.4105 28.3131 10.963 27.6585 10.963H2.433C1.20665 10.963 0.193213 10.2005 0.0276195 9.21268C0.00786475 9.11657 0 9.0204 0 8.92094C0 8.35406 0.272046 7.84359 0.713773 7.47562C1.15141 7.10437 1.75873 6.87561 2.433 6.87561H27.6585C28.3131 6.87561 28.8415 7.3231 28.8415 7.8701Z" fill="#3A556A"/>
<path d="M10.7451 15.3823C14.9928 15.3823 18.4363 11.9389 18.4363 7.69117C18.4363 3.44345 14.9928 0 10.7451 0C6.4974 0 3.05394 3.44345 3.05394 7.69117C3.05394 11.9389 6.4974 15.3823 10.7451 15.3823Z" fill="#D15241"/>
<path d="M10.7451 14.2541C14.3697 14.2541 17.308 11.3158 17.308 7.69115C17.308 4.06655 14.3697 1.12823 10.7451 1.12823C7.12051 1.12823 4.18219 4.06655 4.18219 7.69115C4.18219 11.3158 7.12051 14.2541 10.7451 14.2541Z" fill="#E56353"/>
<path d="M10.7488 13.4338C10.3696 13.4338 9.99543 13.3974 9.63167 13.3258L9.71688 12.8925C10.0533 12.9586 10.3993 12.9921 10.7453 12.9921L10.7506 13.3914L10.7504 13.4338C10.7498 13.4338 10.7493 13.4338 10.7488 13.4338ZM11.8708 13.3236L11.7845 12.8903C12.1244 12.8227 12.4586 12.7212 12.778 12.5884L12.9476 12.9963C12.6014 13.1402 12.2391 13.2503 11.8708 13.3236ZM8.55413 13.0009C8.20753 12.8577 7.87349 12.6795 7.56138 12.471L7.80661 12.1036C8.09476 12.2959 8.40303 12.4605 8.72276 12.5926L8.55413 13.0009ZM13.9392 12.4644L13.6933 12.0975C13.9806 11.9049 14.2505 11.6829 14.4956 11.4376L14.8081 11.7497C14.5428 12.0154 14.2504 12.2558 13.9392 12.4644ZM6.69099 11.7582C6.42539 11.4935 6.18468 11.2015 5.97542 10.8903L6.34209 10.6437C6.53525 10.9311 6.75763 11.2009 7.00286 11.4455L6.69099 11.7582ZM15.5219 10.8801L15.1548 10.6345C15.3475 10.3463 15.5124 10.0382 15.6447 9.71874L16.0528 9.88786C15.9094 10.2339 15.7308 10.5678 15.5219 10.8801ZM5.44242 9.89907C5.298 9.55265 5.18759 9.19037 5.11414 8.82253L5.54726 8.73601C5.61507 9.07544 5.71688 9.40954 5.85008 9.72908L5.44242 9.89907ZM16.3788 8.81076L15.9455 8.72512C16.0124 8.38668 16.0463 8.03878 16.0463 7.69118V7.66802H16.488V7.69118C16.4879 8.06745 16.4513 8.44415 16.3788 8.81076ZM5.00261 7.70282V7.69118C5.00261 7.31856 5.03853 6.94582 5.10937 6.58349L5.54292 6.66827C5.47759 7.0028 5.44434 7.34693 5.44434 7.69118L5.00261 7.70282ZM15.9412 6.63538C15.8726 6.29621 15.77 5.96242 15.6361 5.64306L16.0435 5.4722C16.1886 5.81832 16.2999 6.18022 16.3741 6.548L15.9412 6.63538ZM5.84166 5.6739L5.43313 5.50565C5.57581 5.15904 5.75379 4.82482 5.96192 4.51227L6.32971 4.75707C6.13749 5.04559 5.97338 5.35405 5.84166 5.6739ZM15.1423 4.72926C14.9487 4.4426 14.7259 4.17341 14.4798 3.92904L14.7911 3.61563C15.0575 3.88006 15.2988 4.17167 15.5084 4.48205L15.1423 4.72926ZM6.98713 3.95264L6.67396 3.64114C6.93864 3.3751 7.23044 3.13402 7.54138 2.92458L7.78816 3.29107C7.501 3.4844 7.23149 3.70697 6.98713 3.95264ZM13.6746 3.27249C13.3857 3.08051 13.077 2.91672 12.7573 2.78543L12.9251 2.37671C13.2717 2.51908 13.6061 2.69657 13.9191 2.90452L13.6746 3.27249ZM8.7022 2.79825L8.53178 2.39058C8.87789 2.24598 9.23992 2.1352 9.60776 2.06119L9.69489 2.49431C9.35547 2.56249 9.02144 2.66474 8.7022 2.79825ZM11.7627 2.48775C11.4297 2.42303 11.0874 2.39027 10.7453 2.39027L10.7331 2.08225L10.7412 1.94855C11.1073 1.95016 11.4863 1.98403 11.8471 2.05426L11.7627 2.48775Z" fill="#CE412D"/>
<path d="M12.0961 7.69106C12.5586 7.33907 12.8296 6.79912 12.8296 6.21218C12.8296 5.18468 11.9936 4.34873 10.9661 4.34873H10.7566V3.57959H10.3721V4.34873H9.92341V3.57959H9.53885V4.34873H9.15428H8.6609V5.11786H9.15428V7.30649H8.6609V8.07563H9.15428V10.2643H8.6609V11.0334H9.15428H9.53885V11.8025H9.92341V11.0334H10.3721V11.8025H10.7566V11.0334H10.9661C11.9936 11.0334 12.8296 10.1974 12.8296 9.16994C12.8296 8.583 12.5586 8.04305 12.0961 7.69106ZM10.9662 10.2643H9.92354V8.07563H10.9662C11.5696 8.07563 12.0605 8.56659 12.0605 9.16994C12.0605 9.7733 11.5696 10.2643 10.9662 10.2643ZM10.9662 7.30649H9.92354V5.11786H10.9662C11.5696 5.11786 12.0605 5.60882 12.0605 6.21218C12.0605 6.8156 11.5696 7.30649 10.9662 7.30649Z" fill="#E1E6E9"/>
<path d="M19.633 16.1174C23.0312 16.1174 25.786 13.3626 25.786 9.96442C25.786 6.5662 23.0312 3.8114 19.633 3.8114C16.2348 3.8114 13.48 6.5662 13.48 9.96442C13.48 13.3626 16.2348 16.1174 19.633 16.1174Z" fill="#31978C"/>
<path d="M24.8856 9.96506C24.8856 12.8643 22.5344 15.2155 19.6351 15.2155C18.0157 15.2155 16.567 14.4821 15.6054 13.3302L23.2382 6.14532C24.2522 7.10191 24.8856 8.4588 24.8856 9.96506Z" fill="#3EA69B"/>
<path d="M23.2382 6.1453L15.6054 13.3302C14.8425 12.4196 14.3847 11.2465 14.3847 9.96503C14.3847 7.06418 16.7343 4.7146 19.6352 4.7146C21.0282 4.7146 22.2964 5.25764 23.2382 6.1453Z" fill="#44C4A1"/>
<path d="M20.7151 9.96425C21.0851 9.68267 21.3019 9.25072 21.3019 8.78113C21.3019 7.95917 20.6332 7.29036 19.8111 7.29036H19.6436V6.67505H19.3359V7.29036H18.977V6.67505H18.6693V7.29036H18.3617H17.9669V7.90567H18.3617V9.6566H17.9669V10.2719H18.3617V12.0228H17.9669V12.6381H18.3617H18.6693V13.2535H18.977V12.6381H19.3359V13.2535H19.6436V12.6381H19.8111C20.6331 12.6381 21.3019 11.9694 21.3019 11.1474C21.3019 10.6778 21.0851 10.2458 20.7151 9.96425ZM19.8111 12.0228H18.977V10.2719H19.8111C20.2939 10.2719 20.6866 10.6646 20.6866 11.1474C20.6866 11.63 20.2939 12.0228 19.8111 12.0228ZM19.8111 9.6566H18.977V7.90567H19.8111C20.2939 7.90567 20.6866 8.29841 20.6866 8.78113C20.6866 9.26385 20.2939 9.6566 19.8111 9.6566Z" fill="#EBF0F3"/>
<path d="M28.8415 11.9575V28.0055C28.8415 28.5558 28.3131 29 27.6585 29H2.36599C1.06075 29 0 28.1116 0 27.011V9.20935L0.0276195 9.21269C0.193213 10.2006 1.20665 10.963 2.433 10.963H27.6585C28.3131 10.963 28.8415 11.4106 28.8415 11.9575Z" fill="#64798A"/>
<path d="M28.8415 22.315H22.5405L20.8261 19.9816L22.5405 17.6482H28.8415V22.315Z" fill="#27A2DB"/>
<path d="M24.3349 21.3289C25.0783 21.3289 25.6809 20.7263 25.6809 19.9829C25.6809 19.2396 25.0783 18.637 24.3349 18.637C23.5916 18.637 22.9889 19.2396 22.9889 19.9829C22.9889 20.7263 23.5916 21.3289 24.3349 21.3289Z" fill="#1C75A1"/>
</svg>
