<svg viewBox="0 0 24 36" fill="none" xmlns="http://www.w3.org/2000/svg">
<path d="M21.8732 0H1.47792C0.665057 0 0 0.665057 0 1.47792V33.9921C0 34.8049 0.665057 35.47 1.47792 35.47H21.8732C22.686 35.47 23.3511 34.8049 23.3511 33.9921V1.47792C23.3511 0.665057 22.686 0 21.8732 0Z" fill="#40596B"/>
<path d="M21.5428 4.21863H1.88654V30.0082H21.5428V4.21863Z" fill="#84DBFF"/>
<path d="M13.3013 31.8491H9.68039C9.23704 31.8491 8.86752 32.2185 8.86752 32.662C8.86752 33.1054 9.23697 33.4748 9.68039 33.4748H13.3013C13.7446 33.4748 14.1141 33.1054 14.1141 32.662C14.1141 32.2185 13.7446 31.8491 13.3013 31.8491Z" fill="#334A5E"/>
<path d="M14.6314 1.77353H8.71973C8.49802 1.77353 8.35028 1.92134 8.35028 2.14297C8.35028 2.36468 8.49809 2.51242 8.71973 2.51242H14.6314C14.8531 2.51242 15.0008 2.36461 15.0008 2.14297C15.0008 1.92126 14.853 1.77353 14.6314 1.77353Z" fill="#334A5E"/>
<path d="M18.8986 12H6.1014C5.47202 12 5 12.5556 5 13.1667V20.9444C5 21.6111 5.52448 22.1111 6.1014 22.1111H6.52098V25L8.88109 22.1111H18.8986C19.528 22.1111 20 21.5555 20 20.9444V13.1667C20 12.5 19.4755 12 18.8986 12Z" fill="#F2F2F2"/>
<path d="M8.75708 18.4872C9.42927 18.4872 9.97419 17.9422 9.97419 17.2701C9.97419 16.5979 9.42927 16.0529 8.75708 16.0529C8.08489 16.0529 7.53998 16.5979 7.53998 17.2701C7.53998 17.9422 8.08489 18.4872 8.75708 18.4872Z" fill="#54C0EB"/>
<path d="M12.5671 18.4872C13.2393 18.4872 13.7842 17.9422 13.7842 17.2701C13.7842 16.5979 13.2393 16.0529 12.5671 16.0529C11.895 16.0529 11.35 16.5979 11.35 17.2701C11.35 17.9422 11.895 18.4872 12.5671 18.4872Z" fill="#54C0EB"/>
<path d="M16.3242 18.4872C16.9963 18.4872 17.5413 17.9422 17.5413 17.2701C17.5413 16.5979 16.9963 16.0529 16.3242 16.0529C15.652 16.0529 15.1071 16.5979 15.1071 17.2701C15.1071 17.9422 15.652 18.4872 16.3242 18.4872Z" fill="#54C0EB"/>
</svg>
