<svg viewBox="0 0 348 96" fill="none" xmlns="http://www.w3.org/2000/svg">
<path d="M30.6116 35.0449L39.606 17.7987C39.7753 17.4744 40.007 17.1867 40.2879 16.9521C40.5687 16.7176 40.8931 16.541 41.2424 16.4323C41.5917 16.3236 41.9592 16.285 42.3234 16.3187C42.6876 16.3523 43.0417 16.4576 43.3652 16.6286L81.9136 36.9806L77.9161 44.6528C77.9161 44.6528 88.8048 52.9553 96.1848 40.7936L101.026 31.3164L45.5869 1.39656C44.2006 0.648845 42.6769 0.189968 41.1083 0.0476571C39.5396 -0.0946543 37.9583 0.0825544 36.46 0.568575C34.9617 1.0546 33.5774 1.83934 32.391 2.87539C31.2045 3.91144 30.2403 5.17727 29.5569 6.59642L23.5606 19.0302C23.3124 19.5439 23.1399 20.0908 23.0486 20.6538C22.5935 23.4705 22.063 31.6654 30.6116 35.0449Z" fill="#E87D6D"/>
<path d="M31.5805 64.2054L25.2891 76.9099L57.2077 94.2237C57.9442 94.6296 58.7479 94.8995 59.5801 95.0202C61.7557 95.3277 65.9454 95.2754 69.7692 91.6376C70.4102 91.0159 70.9381 90.2876 71.3298 89.4851L78.001 76.1411C78.6334 74.8917 78.9546 73.5083 78.9373 72.1082C78.8789 68.7257 77.7073 62.7402 70.6625 59.722L60.3781 79.6927L31.5805 64.2054Z" fill="#E87D6D"/>
<path d="M23.1702 49.685L13.1887 69.8925L0 63.3581L5.14912 53.4273C5.81856 52.1263 6.76287 50.9862 7.91663 50.0863C10.7487 47.883 16.3729 45.0571 23.1702 49.685Z" fill="#E87D6D"/>
<path d="M46.8063 35.2216L62.9633 43.0739L55.1104 59.2325C55.0379 59.3814 54.9094 59.4954 54.7529 59.5496C54.5964 59.6037 54.4249 59.5935 54.276 59.5211L38.1147 51.6666L45.9679 35.5082C46.0039 35.4341 46.0541 35.3678 46.1158 35.3132C46.1776 35.2588 46.2494 35.217 46.3273 35.1902C46.4053 35.1636 46.4877 35.1527 46.57 35.1581C46.6522 35.1635 46.7325 35.185 46.8063 35.2216Z" fill="#484848"/>
<path d="M131.828 53.9605C142.591 53.9605 147.811 48.5792 147.811 42.2831C147.811 28.4532 125.909 33.2425 125.909 26.3007C125.909 23.9329 127.9 21.9957 133.066 21.9957C136.402 21.9957 140.008 22.9643 143.506 24.9554L146.196 18.3364C142.699 16.1301 137.855 15 133.12 15C122.411 15 117.245 20.3275 117.245 26.7312C117.245 40.7225 139.147 35.8794 139.147 42.9288C139.147 45.2428 137.048 46.9648 131.882 46.9648C127.362 46.9648 122.626 45.3504 119.451 43.0365L116.492 49.6016C119.828 52.1846 125.855 53.9605 131.828 53.9605ZM170.072 15.6458H153.767V53.3147H162.485V42.9288H170.072C180.135 42.9288 186.431 37.709 186.431 29.3142C186.431 20.8656 180.135 15.6458 170.072 15.6458ZM169.588 35.8256H162.485V22.749H169.588C174.915 22.749 177.606 25.1706 177.606 29.3142C177.606 33.404 174.915 35.8256 169.588 35.8256ZM201.319 46.319V37.6014H218.808V30.821H201.319V22.6414H221.122V15.6458H192.655V53.3147H221.822V46.319H201.319ZM254.697 15.6458V38.5162L235.97 15.6458H228.759V53.3147H237.369V30.4443L256.15 53.3147H263.307V15.6458H254.697ZM272.218 53.3147H289.331C301.654 53.3147 310.102 45.8885 310.102 34.4802C310.102 23.0719 301.654 15.6458 289.331 15.6458H272.218V53.3147ZM280.936 46.1576V22.8029H288.9C296.38 22.8029 301.277 27.2693 301.277 34.4802C301.277 41.6911 296.38 46.1576 288.9 46.1576H280.936Z" fill="#E87D6D"/>
<path d="M127.573 79.5694C130.225 79.5694 132.485 78.6238 133.984 76.871L132.047 75.0259C130.871 76.3174 129.418 76.9402 127.734 76.9402C124.39 76.9402 121.968 74.5877 121.968 71.2665C121.968 67.9454 124.39 65.5929 127.734 65.5929C129.418 65.5929 130.871 66.2156 132.047 67.4841L133.984 65.6621C132.485 63.9092 130.225 62.9636 127.596 62.9636C122.637 62.9636 118.947 66.4462 118.947 71.2665C118.947 76.0868 122.637 79.5694 127.573 79.5694ZM150.648 79.3388L146.935 74.0342C149.126 73.1808 150.372 71.3818 150.372 68.9371C150.372 65.3622 147.742 63.1943 143.499 63.1943H136.856V79.3388H139.855V74.6338H143.499C143.706 74.6338 143.914 74.6338 144.121 74.6107L147.42 79.3388H150.648ZM147.35 68.9371C147.35 70.9667 145.99 72.166 143.36 72.166H139.855V65.7313H143.36C145.99 65.7313 147.35 66.9075 147.35 68.9371ZM166.787 63.1943H163.835L159.061 71.059L154.332 63.1943H151.127L157.469 73.6882V79.3388H160.467V73.6421L166.787 63.1943ZM175.167 63.1943H168.524V79.3388H171.523V74.6799H175.167C179.41 74.6799 182.04 72.4889 182.04 68.9371C182.04 65.3622 179.41 63.1943 175.167 63.1943ZM175.028 72.1429H171.523V65.7313H175.028C177.657 65.7313 179.018 66.9075 179.018 68.9371C179.018 70.9667 177.657 72.1429 175.028 72.1429ZM187.836 79.3388H190.834V65.7313H196.185V63.1943H182.485V65.7313H187.836V79.3388ZM205.752 79.5694C210.757 79.5694 214.447 76.0637 214.447 71.2665C214.447 66.4693 210.757 62.9636 205.752 62.9636C200.747 62.9636 197.057 66.4924 197.057 71.2665C197.057 76.0407 200.747 79.5694 205.752 79.5694ZM205.752 76.9402C202.5 76.9402 200.078 74.5646 200.078 71.2665C200.078 67.9684 202.5 65.5929 205.752 65.5929C209.004 65.5929 211.426 67.9684 211.426 71.2665C211.426 74.5646 209.004 76.9402 205.752 76.9402ZM235.761 63.1943L230.341 75.6486L224.967 63.1943H221.715L228.773 79.3388H231.725L238.759 63.1943H235.761ZM243.461 76.8249V72.3736H251.257V69.9058H243.461V65.7082H252.248V63.1943H240.463V79.3388H252.571V76.8249H243.461ZM267.284 63.1943V74.1264L258.382 63.1943H255.914V79.3388H258.889V68.4066L267.792 79.3388H270.259V63.1943H267.284ZM274.586 79.3388H281.644C286.879 79.3388 290.454 76.1099 290.454 71.2665C290.454 66.4232 286.879 63.1943 281.644 63.1943H274.586V79.3388ZM277.584 76.8018V65.7313H281.505C285.103 65.7313 287.433 67.9223 287.433 71.2665C287.433 74.6107 285.103 76.8018 281.505 76.8018H277.584ZM301.182 79.5694C306.186 79.5694 309.877 76.0637 309.877 71.2665C309.877 66.4693 306.186 62.9636 301.182 62.9636C296.177 62.9636 292.487 66.4924 292.487 71.2665C292.487 76.0407 296.177 79.5694 301.182 79.5694ZM301.182 76.9402C297.93 76.9402 295.508 74.5646 295.508 71.2665C295.508 67.9684 297.93 65.5929 301.182 65.5929C304.433 65.5929 306.855 67.9684 306.855 71.2665C306.855 74.5646 304.433 76.9402 301.182 76.9402ZM326.847 79.3388L323.133 74.0342C325.324 73.1808 326.57 71.3818 326.57 68.9371C326.57 65.3622 323.941 63.1943 319.697 63.1943H313.055V79.3388H316.053V74.6338H319.697C319.905 74.6338 320.112 74.6338 320.32 74.6107L323.618 79.3388H326.847ZM323.549 68.9371C323.549 70.9667 322.188 72.166 319.559 72.166H316.053V65.7313H319.559C322.188 65.7313 323.549 66.9075 323.549 68.9371ZM334.93 79.5694C339.358 79.5694 341.457 77.3553 341.457 74.7722C341.457 68.8448 331.885 71.082 331.885 67.6455C331.885 66.4232 332.9 65.4545 335.391 65.4545C336.798 65.4545 338.389 65.8696 339.842 66.723L340.788 64.3936C339.381 63.471 337.351 62.9636 335.414 62.9636C330.986 62.9636 328.91 65.1777 328.91 67.7839C328.91 73.7804 338.505 71.4972 338.505 74.9798C338.505 76.1791 337.444 77.0786 334.93 77.0786C332.946 77.0786 330.894 76.3405 329.602 75.3027L328.564 77.6321C329.902 78.7853 332.416 79.5694 334.93 79.5694Z" fill="#484848"/>
</svg>
