<svg viewBox="0 0 167 46" fill="none" xmlns="http://www.w3.org/2000/svg">
<path class="wallet" d="M60.1873 39.0342C62.4046 39.0342 63.4555 38.0085 63.4555 36.812C63.4555 34.0662 58.6629 35.1026 58.6629 33.5107C58.6629 32.9444 59.1711 32.4957 60.4183 32.4957C61.1227 32.4957 61.9196 32.688 62.6471 33.0833L63.1206 32.0043C62.4161 31.5769 61.3999 31.3419 60.4298 31.3419C58.2126 31.3419 57.1732 32.3675 57.1732 33.5748C57.1732 36.3526 61.9773 35.2949 61.9773 36.9081C61.9773 37.4637 61.4461 37.8803 60.1873 37.8803C59.1942 37.8803 58.1664 37.5385 57.5197 37.0577L57 38.1368C57.6698 38.6709 58.9286 39.0342 60.1873 39.0342ZM69.3324 33.2222V36.1068C69.3324 37.25 68.651 37.8269 67.6463 37.8269C66.734 37.8269 66.2028 37.3355 66.2028 36.2991V33.2222H64.7593V36.4808C64.7593 38.2009 65.8333 39.0021 67.4154 39.0021C68.2122 39.0021 68.9397 38.7244 69.4017 38.2009V38.9273H70.7759V33.2222H69.3324ZM76.0843 33.1581C75.2413 33.1581 74.5253 33.4252 74.0403 33.9701V33.2222H72.666V41H74.1095V38.2329C74.6061 38.7564 75.299 39.0021 76.0843 39.0021C77.8858 39.0021 79.2139 37.8483 79.2139 36.0748C79.2139 34.312 77.8858 33.1581 76.0843 33.1581ZM75.9226 37.859C74.8833 37.859 74.0864 37.1645 74.0864 36.0748C74.0864 34.985 74.8833 34.2906 75.9226 34.2906C76.962 34.2906 77.7472 34.985 77.7472 36.0748C77.7472 37.1645 76.962 37.859 75.9226 37.859ZM84.0011 33.1581C83.1581 33.1581 82.4421 33.4252 81.957 33.9701V33.2222H80.5828V41H82.0263V38.2329C82.5229 38.7564 83.2158 39.0021 84.0011 39.0021C85.8026 39.0021 87.1307 37.8483 87.1307 36.0748C87.1307 34.312 85.8026 33.1581 84.0011 33.1581ZM83.8394 37.859C82.8001 37.859 82.0032 37.1645 82.0032 36.0748C82.0032 34.985 82.8001 34.2906 83.8394 34.2906C84.8787 34.2906 85.664 34.985 85.664 36.0748C85.664 37.1645 84.8787 37.859 83.8394 37.859ZM91.2713 39.0021C93.1883 39.0021 94.5625 37.7842 94.5625 36.0748C94.5625 34.3654 93.1883 33.1581 91.2713 33.1581C89.3774 33.1581 87.9916 34.3654 87.9916 36.0748C87.9916 37.7842 89.3774 39.0021 91.2713 39.0021ZM91.2713 37.859C90.2319 37.859 89.4467 37.1645 89.4467 36.0748C89.4467 34.985 90.2319 34.2906 91.2713 34.2906C92.3222 34.2906 93.1075 34.985 93.1075 36.0748C93.1075 37.1645 92.3222 37.859 91.2713 37.859ZM97.3171 34.0556V33.2222H95.9429V38.9273H97.3864V36.1603C97.3864 34.9957 98.0793 34.3974 99.1764 34.3974C99.2803 34.3974 99.3843 34.4081 99.5113 34.4295V33.1581C98.4835 33.1581 97.7329 33.4573 97.3171 34.0556ZM104.264 37.6667C104.045 37.8269 103.756 37.9017 103.456 37.9017C102.902 37.9017 102.601 37.6026 102.601 37.047V34.3333H104.253V33.265H102.601V31.9615H101.158V33.265H100.141V34.3333H101.158V37.0791C101.158 38.3397 101.931 39.0021 103.283 39.0021C103.802 39.0021 104.322 38.8739 104.668 38.6175L104.264 37.6667ZM111.451 36.1068C111.451 34.3226 110.134 33.1581 108.333 33.1581C106.496 33.1581 105.145 34.3761 105.145 36.0748C105.145 37.7735 106.484 39.0021 108.552 39.0021C109.614 39.0021 110.481 38.6816 111.035 38.0726L110.261 37.25C109.822 37.6667 109.28 37.8697 108.587 37.8697C107.513 37.8697 106.762 37.3355 106.588 36.5021H111.427C111.439 36.3739 111.451 36.2137 111.451 36.1068ZM108.333 34.2265C109.28 34.2265 109.961 34.7927 110.076 35.6154H106.577C106.715 34.7821 107.397 34.2265 108.333 34.2265ZM117.433 31V33.9273C116.948 33.4038 116.243 33.1581 115.446 33.1581C113.656 33.1581 112.328 34.3013 112.328 36.0748C112.328 37.8483 113.656 39.0021 115.446 39.0021C116.289 39.0021 117.005 38.735 117.49 38.1902V38.9273H118.876V31H117.433ZM115.62 37.859C114.58 37.859 113.783 37.1645 113.783 36.0748C113.783 34.985 114.58 34.2906 115.62 34.2906C116.659 34.2906 117.456 34.985 117.456 36.0748C117.456 37.1645 116.659 37.859 115.62 37.859ZM134.477 31.4487L132.41 37.1645L130.365 31.4487H128.98L126.889 37.1325L124.88 31.4487H123.321L126 38.9273H127.605L129.638 33.3932L131.636 38.9273H133.229L135.909 31.4487H134.477ZM138.887 33.1581C137.894 33.1581 136.935 33.3932 136.277 33.8632L136.843 34.8355C137.305 34.4829 138.021 34.2692 138.714 34.2692C139.742 34.2692 140.25 34.7286 140.25 35.5085V35.594H138.656C136.785 35.594 136.092 36.3419 136.092 37.2927C136.092 38.2863 136.981 39.0021 138.39 39.0021C139.314 39.0021 139.984 38.7244 140.33 38.2329V38.9273H141.693V35.5833C141.693 33.938 140.665 33.1581 138.887 33.1581ZM138.691 38.0299C137.952 38.0299 137.513 37.7201 137.513 37.2393C137.513 36.8227 137.778 36.4808 138.76 36.4808H140.25V37.1432C140.007 37.7308 139.395 38.0299 138.691 38.0299ZM143.546 38.9273H144.989V31H143.546V38.9273ZM146.884 38.9273H148.328V31H146.884V38.9273ZM156.019 36.1068C156.019 34.3226 154.702 33.1581 152.901 33.1581C151.065 33.1581 149.713 34.3761 149.713 36.0748C149.713 37.7735 151.053 39.0021 153.12 39.0021C154.183 39.0021 155.049 38.6816 155.603 38.0726L154.829 37.25C154.39 37.6667 153.848 37.8697 153.155 37.8697C152.081 37.8697 151.33 37.3355 151.157 36.5021H155.996C156.007 36.3739 156.019 36.2137 156.019 36.1068ZM152.901 34.2265C153.848 34.2265 154.529 34.7927 154.645 35.6154H151.145C151.284 34.7821 151.965 34.2265 152.901 34.2265ZM160.709 37.6667C160.489 37.8269 160.2 37.9017 159.9 37.9017C159.346 37.9017 159.046 37.6026 159.046 37.047V34.3333H160.697V33.265H159.046V31.9615H157.602V33.265H156.586V34.3333H157.602V37.0791C157.602 38.3397 158.376 39.0021 159.727 39.0021C160.247 39.0021 160.766 38.8739 161.113 38.6175L160.709 37.6667ZM164.205 39.0021C165.938 39.0021 167 38.3077 167 37.2393C167 35.0064 163.189 36.032 163.189 34.8782C163.189 34.5043 163.605 34.2372 164.482 34.2372C165.071 34.2372 165.66 34.344 166.249 34.6645L166.804 33.6496C166.249 33.3397 165.314 33.1581 164.494 33.1581C162.831 33.1581 161.78 33.8632 161.78 34.9423C161.78 37.2179 165.591 36.1923 165.591 37.282C165.591 37.6773 165.21 37.9124 164.298 37.9124C163.524 37.9124 162.693 37.6773 162.15 37.3462L161.595 38.3611C162.15 38.7244 163.178 39.0021 164.205 39.0021Z" fill="#484848"/>
<path opacity="0.8" d="M14.6637 16.7872L18.9722 8.52593C19.0533 8.3706 19.1643 8.23279 19.2988 8.12041C19.4333 8.00809 19.5887 7.92347 19.756 7.8714C19.9234 7.81932 20.0994 7.80085 20.2739 7.81697C20.4484 7.8331 20.618 7.88354 20.7729 7.96545L39.2384 17.7145L37.3235 21.3896C37.3235 21.3896 42.5394 25.3667 46.0746 19.541L48.3938 15.0012L21.8372 0.66898C21.1731 0.31081 20.4432 0.0909987 19.6918 0.0228287C18.9404 -0.0453414 18.1829 0.0395452 17.4652 0.272359C16.7475 0.505173 16.0844 0.88108 15.516 1.37737C14.9477 1.87366 14.4858 2.48002 14.1584 3.15982L11.2861 9.11586C11.1672 9.36193 11.0846 9.6239 11.0408 9.8936C10.8228 11.2428 10.5687 15.1684 14.6637 16.7872Z" fill="white"/>
<path opacity="0.8" d="M15.1277 30.7556L12.1139 36.8413L27.4036 45.135C27.7564 45.3295 28.1414 45.4587 28.54 45.5165C29.5822 45.6638 31.5891 45.6388 33.4208 43.8962C33.7279 43.5985 33.9808 43.2496 34.1684 42.8651L37.364 36.4731C37.6669 35.8747 37.8208 35.2119 37.8125 34.5412C37.7846 32.9209 37.2234 30.0537 33.8487 28.608L28.9223 38.1744L15.1277 30.7556Z" fill="white"/>
<path opacity="0.8" d="M11.099 23.8002L6.31768 33.48L0 30.3499L2.46653 25.5929C2.78721 24.9696 3.23955 24.4235 3.79223 23.9925C5.14886 22.9371 7.84297 21.5834 11.099 23.8002Z" fill="white"/>
<path opacity="0.8" d="M22.4212 16.8717L30.1608 20.6332L26.399 28.3735C26.3643 28.4448 26.3028 28.4994 26.2278 28.5253C26.1528 28.5513 26.0707 28.5464 25.9993 28.5117L18.2578 24.7492L22.0196 17.009C22.0368 16.9735 22.0609 16.9418 22.0904 16.9156C22.1201 16.8895 22.1545 16.8695 22.1918 16.8567C22.2291 16.844 22.2686 16.8387 22.308 16.8413C22.3474 16.8439 22.3859 16.8542 22.4212 16.8717Z" fill="white"/>
<path d="M14.6637 16.7872L18.9722 8.52593C19.0533 8.3706 19.1643 8.23279 19.2988 8.12041C19.4333 8.00809 19.5887 7.92347 19.7561 7.8714C19.9234 7.81932 20.0994 7.80085 20.2739 7.81697C20.4484 7.8331 20.618 7.88354 20.7729 7.96545L39.2384 17.7145L37.3235 21.3896C37.3235 21.3896 42.5394 25.3667 46.0746 19.541L48.3938 15.0012L21.8372 0.66898C21.1731 0.31081 20.4432 0.0909987 19.6918 0.0228287C18.9404 -0.0453414 18.1829 0.0395452 17.4652 0.272359C16.7475 0.505173 16.0844 0.88108 15.516 1.37737C14.9477 1.87366 14.4858 2.48002 14.1585 3.15982L11.2861 9.11586C11.1672 9.36193 11.0846 9.6239 11.0409 9.8936C10.8229 11.2428 10.5688 15.1684 14.6637 16.7872Z" fill="#E87D6D"/>
<path d="M15.1277 30.7556L12.1139 36.8413L27.4036 45.135C27.7564 45.3295 28.1414 45.4587 28.54 45.5165C29.5822 45.6638 31.5891 45.6388 33.4208 43.8962C33.7279 43.5985 33.9808 43.2496 34.1684 42.8651L37.364 36.4731C37.6669 35.8747 37.8208 35.2119 37.8125 34.5412C37.7846 32.9209 37.2234 30.0538 33.8487 28.608L28.9223 38.1744L15.1277 30.7556Z" fill="#E87D6D"/>
<path d="M11.099 23.8002L6.31768 33.48L0 30.3499L2.46653 25.5929C2.78721 24.9696 3.23955 24.4235 3.79223 23.9925C5.14886 22.9371 7.84297 21.5834 11.099 23.8002Z" fill="#E87D6D"/>
<path d="M22.4212 16.8717L30.1608 20.6332L26.399 28.3735C26.3644 28.4448 26.3028 28.4994 26.2278 28.5253C26.1528 28.5513 26.0707 28.5464 25.9994 28.5117L18.2578 24.7492L22.0196 17.009C22.0368 16.9735 22.0609 16.9418 22.0905 16.9156C22.1201 16.8895 22.1545 16.8695 22.1918 16.8567C22.2291 16.844 22.2686 16.8387 22.308 16.8413C22.3474 16.8439 22.3859 16.8542 22.4212 16.8717Z" fill="#484848"/>
<path d="M64.4759 26C70.4239 26 73.3087 22.9614 73.3087 19.4061C73.3087 11.5967 61.2045 14.3011 61.2045 10.3812C61.2045 9.04422 62.305 7.95028 65.1599 7.95028C67.0038 7.95028 68.9964 8.49725 70.9295 9.6216L72.4165 5.88398C70.4834 4.63813 67.8068 4 65.1897 4C59.2715 4 56.4164 7.00829 56.4164 10.6243C56.4164 18.5248 68.5205 15.7901 68.5205 19.7707C68.5205 21.0773 67.3607 22.0497 64.5057 22.0497C62.0075 22.0497 59.3904 21.1381 57.6357 19.8315L56 23.5386C57.8439 24.9972 61.1748 26 64.4759 26ZM85.6117 4.36464H76.6004V25.6354H81.4183V19.7707H85.6117C91.1729 19.7707 94.6526 16.8232 94.6526 12.0828C94.6526 7.31215 91.1729 4.36464 85.6117 4.36464ZM85.344 15.7597H81.4183V8.37571H85.344C88.2882 8.37571 89.7752 9.74313 89.7752 12.0828C89.7752 14.3922 88.2882 15.7597 85.344 15.7597ZM102.88 21.6851V16.7625H112.546V12.9337H102.88V8.31489H113.825V4.36464H98.0923V25.6354H114.212V21.6851H102.88ZM132.38 4.36464V17.279L122.03 4.36464H118.045V25.6354H122.803V12.721L133.183 25.6354H137.138V4.36464H132.38ZM142.063 25.6354H151.52C158.331 25.6354 163 21.442 163 15C163 8.55796 158.331 4.36464 151.52 4.36464H142.063V25.6354ZM146.881 21.594V8.40613H151.283C155.417 8.40613 158.122 10.9282 158.122 15C158.122 19.0718 155.417 21.594 151.283 21.594H146.881Z" fill="#E87D6D"/>
<path class="app" d="M61.0386 30.2685H57.8397V38.0014H59.2836V35.7699H61.0386C63.0823 35.7699 64.3486 34.7204 64.3486 33.0192C64.3486 31.3069 63.0823 30.2685 61.0386 30.2685ZM60.9719 34.5547H59.2836V31.4837H60.9719C62.2382 31.4837 62.8935 32.0471 62.8935 33.0192C62.8935 33.9913 62.2382 34.5547 60.9719 34.5547ZM71.2203 38.0014H72.7309L69.221 30.2685H67.7992L64.3004 38.0014H65.7888L66.5552 36.2118H70.4428L71.2203 38.0014ZM67.044 35.085L68.499 31.7046L69.9652 35.085H67.044ZM80.3617 38.0014L78.5734 35.4606C79.6286 35.0518 80.2284 34.1902 80.2284 33.0192C80.2284 31.3069 78.9621 30.2685 76.9184 30.2685H73.7197V38.0014H75.1634V35.7478H76.9184C77.0183 35.7478 77.1183 35.7478 77.2183 35.7367L78.8066 38.0014H80.3617ZM78.7733 33.0192C78.7733 33.9913 78.118 34.5658 76.8517 34.5658H75.1634V31.4837H76.8517C78.118 31.4837 78.7733 32.0471 78.7733 33.0192ZM83.3132 38.0014H84.7572V31.4837H87.3341V30.2685H80.7363V31.4837H83.3132V38.0014ZM93.8934 30.2685V35.5048L89.6059 30.2685H88.4174V38.0014H89.8503V32.7651L94.1377 38.0014H95.3262V30.2685H93.8934ZM98.8539 36.7972V34.6652H102.608V33.4832H98.8539V31.4726H103.086V30.2685H97.4099V38.0014H103.241V36.7972H98.8539ZM111.493 38.0014L109.704 35.4606C110.759 35.0518 111.359 34.1902 111.359 33.0192C111.359 31.3069 110.093 30.2685 108.049 30.2685H104.85V38.0014H106.294V35.7478H108.049C108.149 35.7478 108.249 35.7478 108.349 35.7367L109.938 38.0014H111.493ZM109.904 33.0192C109.904 33.9913 109.249 34.5658 107.983 34.5658H106.294V31.4837H107.983C109.249 31.4837 109.904 32.0471 109.904 33.0192ZM121.865 38.0014H123.376L119.866 30.2685H118.444L114.945 38.0014H116.434L117.2 36.2118H121.088L121.865 38.0014ZM117.689 35.085L119.144 31.7046L120.61 35.085H117.689ZM127.563 30.2685H124.365V38.0014H125.808V35.7699H127.563C129.607 35.7699 130.873 34.7204 130.873 33.0192C130.873 31.3069 129.607 30.2685 127.563 30.2685ZM127.497 34.5547H125.808V31.4837H127.497C128.763 31.4837 129.418 32.0471 129.418 33.0192C129.418 33.9913 128.763 34.5547 127.497 34.5547ZM135.514 30.2685H132.315V38.0014H133.759V35.7699H135.514C137.558 35.7699 138.824 34.7204 138.824 33.0192C138.824 31.3069 137.558 30.2685 135.514 30.2685ZM135.447 34.5547H133.759V31.4837H135.447C136.714 31.4837 137.369 32.0471 137.369 33.0192C137.369 33.9913 136.714 34.5547 135.447 34.5547ZM142.785 38.1118C144.918 38.1118 145.928 37.0513 145.928 35.8141C145.928 32.975 141.319 34.0466 141.319 32.4006C141.319 31.8151 141.807 31.3511 143.007 31.3511C143.685 31.3511 144.451 31.55 145.151 31.9587L145.606 30.843C144.929 30.4011 143.951 30.1581 143.018 30.1581C140.886 30.1581 139.886 31.2186 139.886 32.4669C139.886 35.3391 144.507 34.2454 144.507 35.9135C144.507 36.4879 143.996 36.9188 142.785 36.9188C141.83 36.9188 140.841 36.5653 140.219 36.0681L139.719 37.1839C140.364 37.7362 141.574 38.1118 142.785 38.1118Z" fill="#484848"/>
</svg>
