<svg viewBox="0 0 109 45" fill="none" xmlns="http://www.w3.org/2000/svg">
<path opacity="0.8" d="M10.6182 12.156L13.7381 6.17382C13.7968 6.06134 13.8772 5.96156 13.9747 5.88018C14.072 5.79885 14.1846 5.73757 14.3057 5.69986C14.4269 5.66216 14.5544 5.64877 14.6807 5.66045C14.807 5.67213 14.9299 5.70866 15.0421 5.76797L28.4134 12.8275L27.0267 15.4887C27.0267 15.4887 30.8037 18.3686 33.3636 14.1501L35.043 10.8627L15.8127 0.484424C15.3318 0.225065 14.8033 0.0658943 14.2592 0.0165308C13.7151 -0.0328327 13.1666 0.0286356 12.6469 0.197222C12.1271 0.365808 11.647 0.638011 11.2354 0.997385C10.8239 1.35676 10.4894 1.79584 10.2524 2.2881L8.17245 6.60101C8.08637 6.77919 8.02653 6.96889 7.99485 7.16419C7.83699 8.14122 7.653 10.9838 10.6182 12.156Z" fill="white"/>
<path opacity="0.8" d="M10.9541 22.271L8.77182 26.6778L19.8435 32.6834C20.0989 32.8243 20.3777 32.9179 20.6664 32.9597C21.421 33.0663 22.8743 33.0482 24.2006 31.7864C24.423 31.5708 24.6061 31.3181 24.742 31.0397L27.056 26.4111C27.2754 25.9778 27.3868 25.4979 27.3808 25.0122C27.3605 23.8389 26.9541 21.7627 24.5105 20.7158L20.9431 27.6431L10.9541 22.271Z" fill="white"/>
<path opacity="0.8" d="M8.03707 17.2343L4.57478 24.2437L0 21.9771L1.78607 18.5324C2.01828 18.0811 2.34584 17.6857 2.74604 17.3735C3.72841 16.6093 5.67928 15.629 8.03707 17.2343Z" fill="white"/>
<path opacity="0.8" d="M16.2357 12.2173L21.8401 14.9411L19.1161 20.546C19.091 20.5976 19.0464 20.6372 18.9921 20.656C18.9378 20.6747 18.8784 20.6712 18.8267 20.6461L13.2209 17.9216L15.9449 12.3167C15.9574 12.291 15.9748 12.268 15.9962 12.2491C16.0176 12.2302 16.0425 12.2157 16.0696 12.2064C16.0966 12.1972 16.1252 12.1934 16.1537 12.1953C16.1823 12.1972 16.2101 12.2046 16.2357 12.2173Z" fill="white"/>
<path d="M10.6182 12.156L13.7381 6.17382C13.7968 6.06134 13.8772 5.96156 13.9747 5.88018C14.072 5.79885 14.1846 5.73757 14.3057 5.69986C14.4269 5.66216 14.5544 5.64877 14.6807 5.66045C14.807 5.67213 14.9299 5.70866 15.0421 5.76797L28.4134 12.8275L27.0267 15.4887C27.0267 15.4887 30.8037 18.3686 33.3636 14.1501L35.043 10.8627L15.8127 0.484424C15.3318 0.225065 14.8033 0.0658943 14.2592 0.0165308C13.7151 -0.0328327 13.1666 0.0286356 12.6469 0.197222C12.1271 0.365808 11.647 0.638011 11.2354 0.997385C10.8239 1.35676 10.4894 1.79584 10.2524 2.2881L8.17245 6.60101C8.08637 6.77919 8.02653 6.96889 7.99485 7.16419C7.83699 8.14122 7.653 10.9838 10.6182 12.156Z" fill="white"/>
<path d="M10.9541 22.271L8.77182 26.6778L19.8435 32.6834C20.0989 32.8243 20.3777 32.9179 20.6664 32.9597C21.421 33.0663 22.8743 33.0482 24.2006 31.7864C24.423 31.5708 24.6061 31.3181 24.742 31.0397L27.056 26.4111C27.2754 25.9778 27.3868 25.4979 27.3808 25.0122C27.3605 23.8389 26.9541 21.7627 24.5105 20.7158L20.9431 27.6431L10.9541 22.271Z" fill="white"/>
<path d="M8.03707 17.2343L4.57478 24.2437L0 21.9771L1.78607 18.5324C2.01828 18.0811 2.34584 17.6857 2.74604 17.3735C3.72841 16.6093 5.67928 15.629 8.03707 17.2343Z" fill="white"/>
<path d="M16.2357 12.2173L21.8401 14.9411L19.1161 20.546C19.091 20.5976 19.0464 20.6372 18.9921 20.656C18.9378 20.6747 18.8784 20.6712 18.8267 20.6461L13.2209 17.9216L15.9449 12.3167C15.9574 12.291 15.9748 12.268 15.9962 12.2491C16.0176 12.2302 16.0425 12.2157 16.0696 12.2064C16.0966 12.1972 16.1252 12.1934 16.1537 12.1953C16.1823 12.1972 16.2101 12.2046 16.2357 12.2173Z" fill="white"/>
<path d="M46.7479 18.8899C50.4811 18.8899 52.2917 17.0233 52.2917 14.8394C52.2917 10.0422 44.6946 11.7035 44.6946 9.2956C44.6946 8.4743 45.3853 7.80232 47.1772 7.80232C48.3345 7.80232 49.5851 8.13831 50.7984 8.82895L51.7317 6.53303C50.5184 5.76772 48.8385 5.37573 47.1959 5.37573C43.4813 5.37573 41.6894 7.22367 41.6894 9.44493C41.6894 14.2981 49.2865 12.6182 49.2865 15.0634C49.2865 15.866 48.5585 16.4634 46.7666 16.4634C45.1986 16.4634 43.556 15.9034 42.4547 15.1007L41.4281 17.378C42.5854 18.274 44.676 18.8899 46.7479 18.8899ZM60.0136 5.59972H54.3578V18.666H57.3817V15.0634H60.0136C63.5041 15.0634 65.6881 13.2528 65.6881 10.3409C65.6881 7.41033 63.5041 5.59972 60.0136 5.59972ZM59.8456 12.5995H57.3817V8.06364H59.8456C61.6935 8.06364 62.6268 8.90361 62.6268 10.3409C62.6268 11.7595 61.6935 12.5995 59.8456 12.5995ZM70.8522 16.2394V13.2155H76.9186V10.8635H70.8522V8.02631H77.7213V5.59972H67.8469V18.666H77.9639V16.2394H70.8522ZM89.3673 5.59972V13.5328L82.8715 5.59972H80.3702V18.666H83.3568V10.7329L89.8713 18.666H92.3538V5.59972H89.3673ZM95.4449 18.666H101.381C105.655 18.666 108.586 16.09 108.586 12.1328C108.586 8.17564 105.655 5.59972 101.381 5.59972H95.4449V18.666ZM98.4688 16.1834V8.08231H101.231C103.826 8.08231 105.525 9.63159 105.525 12.1328C105.525 14.6341 103.826 16.1834 101.231 16.1834H98.4688Z" fill="white"/>
<path d="M44.2488 27.5992C45.1688 27.5992 45.9528 27.2712 46.4728 26.6632L45.8008 26.0232C45.3928 26.4712 44.8888 26.6872 44.3048 26.6872C43.1449 26.6872 42.3049 25.8712 42.3049 24.7193C42.3049 23.5673 43.1449 22.7513 44.3048 22.7513C44.8888 22.7513 45.3928 22.9673 45.8008 23.4073L46.4728 22.7753C45.9528 22.1673 45.1688 21.8394 44.2568 21.8394C42.5369 21.8394 41.2569 23.0473 41.2569 24.7193C41.2569 26.3912 42.5369 27.5992 44.2488 27.5992ZM51.5439 27.5192H52.6319L50.1039 21.9194H49.08L46.5601 27.5192H47.632L48.184 26.2232H50.9839L51.5439 27.5192ZM48.536 25.4072L49.584 22.9593L50.6399 25.4072H48.536ZM58.1278 27.5192L56.8399 25.6792C57.5999 25.3832 58.0318 24.7593 58.0318 23.9113C58.0318 22.6713 57.1199 21.9194 55.6479 21.9194H53.344V27.5192H54.384V25.8872H55.6479C55.7199 25.8872 55.7919 25.8872 55.8639 25.8792L57.0079 27.5192H58.1278ZM56.9839 23.9113C56.9839 24.6153 56.5119 25.0312 55.5999 25.0312H54.384V22.7993H55.5999C56.5119 22.7993 56.9839 23.2073 56.9839 23.9113ZM59.1955 27.5192H61.6434C63.4594 27.5192 64.6993 26.3992 64.6993 24.7193C64.6993 23.0393 63.4594 21.9194 61.6434 21.9194H59.1955V27.5192ZM60.2355 26.6392V22.7993H61.5954C62.8434 22.7993 63.6514 23.5593 63.6514 24.7193C63.6514 25.8792 62.8434 26.6392 61.5954 26.6392H60.2355Z" fill="white"/>
</svg>
