<svg viewBox="0 0 176 193" fill="none" xmlns="http://www.w3.org/2000/svg">
<path
    d="M37.0735 28.99C37.8588 30.2243 38.3508 31.6221 38.5116 33.0762C38.6724 34.5302 38.4979 36.0018 38.0013 37.3778C40.5595 39.9633 43.0874 42.579 45.7791 45.0153C45.8406 45.0705 45.9058 45.1216 45.974 45.1683C48.7116 43.7359 51.8262 43.1879 54.8883 43.5998C57.9505 44.0117 60.8095 45.3633 63.0713 47.4682C64.4015 47.2343 65.6216 46.5151 66.907 45.4626C67.4742 44.9987 68.1652 44.6908 68.7587 44.2581C71.7953 42.0537 75.328 40.5022 78.0889 37.9713C77.7725 35.9076 78.1396 33.7969 79.1344 31.9613C80.1293 30.1256 81.6971 28.6656 83.5989 27.804C83.8537 26.966 83.9763 26.0934 83.9624 25.2176C83.8786 21.9042 83.9419 18.58 83.9361 15.2607C83.9361 11.1121 83.8932 6.96256 83.9546 2.81396C83.9838 0.842472 83.2296 -0.0930827 81.186 0.00729458C76.4936 0.239234 71.7914 0.320121 67.1029 0.65926C66.0251 0.736248 64.7689 1.35995 63.9903 2.13081C54.9836 11.0439 46.0529 20.0399 37.0735 28.99Z"
    fill="#050505"
  />
<path
    d="M92.478 28.3364C93.8866 29.1868 95.0516 30.3867 95.86 31.8197C96.6685 33.2528 97.093 34.8704 97.0925 36.5157C97.0925 36.7106 97.0856 36.9055 97.0739 37.1004C97.4823 37.6988 97.9296 38.2436 98.486 38.6305C102.793 41.6272 107.231 44.4514 111.753 47.1089C112.241 47.3925 112.923 47.5504 113.613 47.5728C115.722 46.019 118.203 45.047 120.806 44.7543C123.409 44.4617 126.044 44.8586 128.445 45.9054C129.24 45.7368 130.026 45.3869 130.523 44.9367C133.227 42.4848 135.758 39.8428 138.329 37.2437C137.822 35.9169 137.617 34.494 137.728 33.0782C137.84 31.6623 138.264 30.2889 138.972 29.0576C130.095 20.1299 121.265 11.1553 112.348 2.26757C111.51 1.43142 110.155 0.757038 108.99 0.667381C104.312 0.310701 99.6087 0.236636 94.9173 0.0105433C93.0131 -0.0810632 92.2656 0.77458 92.286 2.64179C92.3387 6.88005 92.3026 11.1203 92.2997 15.3575C92.2997 16.4636 92.2617 17.5707 92.2997 18.671C92.4244 21.8801 91.9294 25.2091 92.478 28.3364Z"
    fill="#050505"
  />
<path
    d="M172.188 36.6493C166.906 36.6737 161.581 36.2731 156.351 36.7526C155.952 37.9916 155.303 39.136 154.446 40.1157C153.588 41.0953 152.54 41.8896 151.365 42.4498C150.19 43.01 148.912 43.3243 147.611 43.3736C146.311 43.4229 145.013 43.206 143.799 42.7363C140.981 45.3012 138.425 48.2112 135.829 51.0198C135.596 51.2882 135.412 51.5965 135.288 51.93C136.903 54.6334 137.621 57.7777 137.341 60.9138C137.061 64.0499 135.797 67.0172 133.729 69.3918C133.774 69.4678 133.822 69.5448 133.871 69.6228C136.817 74.1924 139.657 78.8292 142.575 83.4173L142.62 83.4865C143.066 83.4226 143.516 83.39 143.967 83.3891C145.356 83.3868 146.729 83.6889 147.99 84.2739C148.074 84.1931 148.161 84.1092 148.249 84.0225C155.364 76.9279 162.453 69.8066 169.516 62.6587C170.444 61.7144 171.368 60.4358 171.591 59.1855C172.808 52.4826 173.804 45.7369 174.877 39.0126C174.984 36.9807 173.802 36.6415 172.188 36.6493Z"
    fill="#050505"
  />
<path
    d="M27.7599 83.8638C27.986 84.0889 28.2053 84.2887 28.4177 84.4641C29.3814 84.1476 30.3894 83.9867 31.4037 83.9876C31.8205 83.9876 32.2368 84.0146 32.6501 84.0685C32.8789 83.783 33.092 83.4853 33.2885 83.1768C36.1322 78.7621 39.0314 74.3738 41.6285 69.8159C41.8277 69.4476 41.9678 69.0503 42.0437 68.6386C39.8499 66.3131 38.4603 63.345 38.0793 60.1708C37.6983 56.9966 38.3459 53.784 39.927 51.0053L39.9007 50.9722C37.6593 48.4111 35.1031 46.1288 32.7534 43.6632C32.58 43.481 32.4046 43.3036 32.2291 43.1282C31.0129 43.5615 29.7214 43.7441 28.4327 43.6649C27.1439 43.5857 25.8846 43.2463 24.7305 42.6672C23.5765 42.0882 22.5516 41.2814 21.7178 40.2955C20.884 39.3097 20.2584 38.1652 19.8788 36.9311C18.6508 36.7772 17.4125 36.7205 16.1756 36.7615C16.0145 36.7667 15.8521 36.7706 15.6883 36.7732C14.5598 36.7937 13.4303 36.7674 12.3008 36.7732C9.72027 36.7732 7.13579 36.8707 4.56009 36.744C2.22803 36.627 1.32853 37.5733 1.66182 39.8459C2.58471 46.1307 3.40429 52.4321 4.46751 58.6935C4.6975 60.049 5.52976 61.5021 6.50429 62.501C13.5297 69.6804 20.637 76.7799 27.7599 83.8638Z"
    fill="#050505"
  />
<path
    d="M108.164 132.932L108.192 132.911C107.4 130.797 107.097 128.53 107.306 126.282C107.515 124.033 108.23 121.861 109.398 119.929L109.293 119.823C106.109 116.628 102.898 113.458 99.753 110.224C99.177 109.632 98.6128 109.261 97.9988 109.125C94.9763 111.024 91.4825 112.039 87.913 112.055C84.3434 112.07 80.8408 111.087 77.8015 109.215C77.17 109.41 76.5882 109.829 75.9869 110.458C73.3177 113.255 70.6026 116.013 67.8008 118.672C67.3918 119.051 67.0064 119.456 66.647 119.883C67.8869 121.811 68.6668 123.999 68.9265 126.277C69.1862 128.555 68.9188 130.862 68.1448 133.02C68.1741 133.043 68.2023 133.069 68.2325 133.091C71.2536 135.332 74.7493 136.971 77.6592 139.337C78.9917 140.427 80.4839 141.306 82.0836 141.943C83.7749 140.67 85.8414 139.995 87.9582 140.024C90.075 140.053 92.1222 140.784 93.7781 142.103C98.5884 139.069 103.384 136.012 108.164 132.932Z"
    fill="#050505"
  />
<path
    d="M128.215 112.28C130.486 108.705 132.731 105.113 135.021 101.55C135.558 100.712 136.14 99.8929 136.61 99.0392C135.259 97.4096 134.487 95.3773 134.417 93.2616C134.346 91.1458 134.981 89.0666 136.22 87.3506C136.206 87.3233 136.192 87.2951 136.176 87.2678C133.61 82.8015 130.651 78.5632 128.01 74.1369C127.894 73.942 127.777 73.7597 127.659 73.5902C125.489 74.392 123.163 74.6796 120.863 74.4303C118.563 74.1811 116.353 73.4018 114.405 72.1537C114.379 72.1751 114.352 72.1946 114.327 72.2161C110.963 75.2137 107.909 78.5574 104.685 81.7158C104.394 81.9907 104.142 82.3034 103.935 82.6455C105.889 85.7033 106.933 89.2542 106.945 92.8833C106.957 96.5124 105.935 100.07 104 103.14C104.106 103.849 104.368 104.547 104.735 104.96C107.48 108.058 110.59 110.828 113.403 113.869C113.731 114.229 114.081 114.569 114.452 114.885C116.367 113.73 118.517 113.019 120.743 112.804C122.969 112.59 125.215 112.877 127.316 113.645C127.576 113.287 127.861 112.839 128.215 112.28Z"
    fill="#050505"
  />
<path
    d="M82.1041 44.9221C77.4263 47.6683 72.8849 50.665 68.3183 53.6061C67.9937 53.8147 67.601 54.0535 67.2667 54.3137C67.8153 56.2541 67.9662 58.2854 67.7104 60.2856C67.4545 62.2858 66.7971 64.2137 65.7776 65.9535C66.0132 66.2574 66.2691 66.5449 66.5436 66.814C69.7693 70.1002 73.0662 73.3181 76.2744 76.6208C76.4876 76.8436 76.7216 77.0456 76.9731 77.224C80.1912 75.0012 84.0138 73.8191 87.925 73.8374C91.8361 73.8557 95.6475 75.0735 98.8446 77.3264C99.2735 77.0616 99.6629 76.7378 100.001 76.3645C102.719 73.4857 105.499 70.6557 108.397 67.9601C108.767 67.6222 109.116 67.2608 109.44 66.8784C108.368 64.9589 107.732 62.8268 107.578 60.6337C107.424 58.4405 107.755 56.2404 108.548 54.1899C108.125 53.8345 107.672 53.5168 107.194 53.2407C103.952 51.3101 100.794 49.2383 97.6245 47.1888C96.0799 46.1899 94.582 45.0604 92.9467 44.3919C91.4312 45.4305 89.6486 46.0105 87.8121 46.0623C85.9756 46.1141 84.163 45.6357 82.5913 44.6843C82.4229 44.7507 82.26 44.8302 82.1041 44.9221Z"
    fill="#050505"
  />
<path
    d="M71.2682 104.949C71.5674 104.619 71.7935 104.094 71.9231 103.528C69.8429 100.399 68.7311 96.7258 68.7268 92.9682C68.7225 89.2106 69.8257 85.5351 71.8987 82.401C71.7189 82.1409 71.5128 81.8999 71.2838 81.6818C68.0464 78.5399 64.9883 75.2051 61.6456 72.1898C61.2665 71.8478 60.749 71.6051 60.1838 71.4375C56.7636 73.344 52.7324 73.8338 48.9552 72.8019C48.5847 73.2316 48.2555 73.6952 47.9719 74.1867C45.6418 78.0478 43.1918 81.8368 40.7399 85.6229C40.2107 86.4395 39.663 87.2416 39.2391 88.0728C40.3404 89.6467 40.9418 91.5159 40.9649 93.4367C40.9881 95.3574 40.4318 97.2406 39.3687 98.8405C39.3892 98.8804 39.4096 98.9204 39.432 98.9584C42.2436 103.71 45.3065 108.314 48.196 113.019C48.4012 113.36 48.6392 113.68 48.9065 113.975C50.9267 113.227 53.0847 112.923 55.2329 113.086C57.3811 113.249 59.4688 113.873 61.3533 114.917C64.7973 111.739 68.1263 108.422 71.2682 104.949Z"
    fill="#050505"
  />
<path
    d="M118.503 142.141C116.336 141.592 114.32 140.562 112.606 139.128C112.299 139.228 112.004 139.364 111.729 139.534C108.047 141.802 104.442 144.194 100.764 146.47C99.5804 147.203 98.3681 147.894 97.3536 148.756C97.377 149.028 97.3896 149.302 97.3896 149.579C97.3904 151.302 96.9251 152.993 96.0431 154.473C95.1611 155.953 93.8952 157.167 92.3795 157.986C92.1622 158.535 92.039 159.117 92.0151 159.708C91.8728 169.463 91.9371 179.221 91.9498 188.979C91.9498 189.862 92.0589 190.746 92.1505 192.127C93.1153 191.693 93.5948 191.599 93.9096 191.319C101.752 184.368 109.616 177.441 117.346 170.366C118.214 169.572 118.663 167.93 118.683 166.663C118.803 158.933 118.769 151.199 118.734 143.469C118.73 143.017 118.652 142.568 118.503 142.141Z"
    fill="#050505"
  />
<path
    d="M78.2751 149.58C78.2749 149.254 78.2912 148.929 78.3238 148.605C78.1976 148.492 78.0642 148.387 77.9242 148.29C73.6714 145.379 69.2645 142.693 64.923 139.909C64.5604 139.677 64.2106 139.45 63.8588 139.26C62.0286 140.846 59.8392 141.961 57.4804 142.509C57.3674 142.977 57.3192 143.458 57.3372 143.939C57.5136 151.303 57.4697 158.675 57.3606 166.042C57.3264 168.359 58.034 170.156 59.7258 171.651C66.8951 177.987 74.0654 184.322 81.2367 190.655C81.8273 191.175 82.5611 191.532 83.868 192.379C83.9586 190.545 84.057 189.474 84.0629 188.403C84.0755 179.561 84.0336 170.719 84.0901 161.877C84.0979 160.65 84.1233 159.441 83.941 158.303C82.255 157.551 80.8227 156.328 79.8173 154.78C78.8118 153.232 78.2761 151.426 78.2751 149.58Z"
    fill="#050505"
  />
<path
    d="M3.50372 28.726C8.75647 28.6334 14.0287 28.9209 19.2639 28.6285C19.9725 28.589 20.6783 28.5089 21.3777 28.3888C22.2671 27.2037 23.4204 26.242 24.7461 25.5801C26.0718 24.9182 27.5334 24.5742 29.0151 24.5754C29.2516 24.5754 29.4858 24.5838 29.7178 24.6007C30.0147 24.3558 30.3041 24.1008 30.5861 23.8357C37.2207 17.5743 43.5357 10.9718 49.9716 4.50287C50.5816 3.88404 51.1206 3.19309 51.9606 2.22927C51.0397 2.05288 50.6118 1.86772 50.2064 1.90963C34.1393 3.55952 18.2416 6.18102 2.61689 10.3316C0.692183 10.8422 -0.089395 12.0224 0.0080587 13.9666C0.202966 17.9232 0.42711 21.8808 0.486557 25.8403C0.519691 27.9756 1.3841 28.7601 3.50372 28.726Z"
    fill="#050505"
  />
<path
    d="M172.353 10.0669C158.308 7.51558 144.275 4.90187 130.226 2.36807C128.374 2.03478 126.466 2.05135 123.941 1.85547C124.579 2.8495 124.726 3.19741 124.974 3.44591C131.956 10.4626 138.741 17.6927 146.046 24.3507C146.448 24.2999 146.853 24.2745 147.259 24.2747C148.811 24.2737 150.341 24.6514 151.714 25.3752C153.088 26.099 154.264 27.1469 155.141 28.4282C155.364 28.4613 155.586 28.4902 155.806 28.5149C161.361 29.1357 167.037 28.6581 172.661 28.7098C174.458 28.7273 175.411 28.13 175.461 26.1965C175.558 22.3285 175.68 18.4557 175.977 14.5995C176.187 11.826 174.948 10.5396 172.353 10.0669Z"
    fill="#050505"
  />
<path
    d="M38.8755 124.059C39.1711 124.039 39.4617 123.973 39.737 123.864C40.3133 121.846 41.3096 119.972 42.6606 118.366C42.6097 118.22 42.5444 118.08 42.4657 117.946C39.4203 112.889 36.2384 107.909 33.0195 102.96C31.3353 103.247 29.605 103.078 28.0075 102.473C27.0027 103.417 26.0418 104.411 25.0839 105.403C19.1908 111.49 19.5475 109.346 22.7771 117.455C24.7925 122.515 27.3916 125.766 32.5332 124.082C35.2015 124.079 37.0444 124.164 38.8755 124.059Z"
    fill="#050505"
  />
<path
    d="M154.332 108.833C152.262 106.862 150.309 104.77 148.269 102.768C147.962 102.463 147.638 102.174 147.3 101.904C146.235 102.3 145.107 102.502 143.969 102.501C143.725 102.501 143.482 102.492 143.242 102.474C143.041 102.737 142.834 103.034 142.62 103.371C139.891 107.648 137.225 111.958 134.501 116.235C134.124 116.828 133.76 117.385 133.516 117.963C135.009 119.704 136.08 121.767 136.645 123.991C137.253 124.175 137.946 124.223 138.757 124.129C139.236 124.078 139.719 124.053 140.201 124.057C140.443 124.057 140.688 124.057 140.928 124.067L141.353 124.078C141.778 124.091 142.203 124.104 142.627 124.104C142.99 124.104 143.354 124.094 143.718 124.083L144.083 124.072C144.888 124.033 145.694 124.052 146.496 124.13C148.979 124.422 150.453 123.448 151.381 121.114C152.469 118.379 153.844 115.754 155.094 113.086C155.839 111.488 155.677 110.112 154.332 108.833Z"
    fill="#050505"
  />
<path
    d="M136.444 132.059C135.751 134.301 134.54 136.349 132.91 138.037C131.279 139.725 129.274 141.005 127.057 141.776C126.717 142.365 126.473 142.98 126.44 143.572C126.209 147.701 126.337 151.855 126.37 155.994C126.377 156.852 126.565 157.708 126.675 158.565L127.424 158.787C134.126 150.652 140.093 142.02 145.474 131.995C141.947 131.994 139.181 131.906 136.444 132.059Z"
    fill="#050505"
  />
<path
    d="M49.4492 142.156C47.1316 141.394 45.0353 140.077 43.343 138.32C41.6507 136.563 40.4138 134.419 39.7399 132.074C39.6762 132.057 39.6109 132.046 39.545 132.041C36.827 131.881 34.0934 131.973 30.4185 131.973C35.9948 141.984 41.8566 150.673 48.8713 159.23C49.2913 158.151 49.5291 157.822 49.532 157.491C49.5701 152.521 49.647 147.551 49.5213 142.592C49.5161 142.444 49.4919 142.298 49.4492 142.156Z"
    fill="#050505"
  />
<path
    d="M165.959 77.2738C161.656 81.5617 157.347 85.8409 153.124 90.2049C153.726 92.2225 153.647 94.3821 152.899 96.3503C154.248 98.7545 157.029 100.107 158.714 102.272L159.773 102.182L167.849 77.072L167.069 76.6705C166.693 76.8684 166.245 76.9892 165.959 77.2738Z"
    fill="#050505"
  />
<path
    d="M22.4186 96.7978C21.6423 94.6465 21.6606 92.2885 22.4702 90.1495C18.4678 85.6559 14.0424 81.5356 9.75641 77.2944C9.62777 77.1667 9.28571 77.2544 8.37646 77.2057L16.2176 101.699L17.4231 101.913C19.0759 100.2 21.0221 98.6591 22.4186 96.7978Z"
    fill="#050505"
  />
</svg>
